…
\#total no. cards

``` r
nrow(sav_df)
```

    ## [1] 9206175

\#presences and absences

``` r
sav_df %>% group_by(Common_name) %>% count(Presence)
```

    ## # A tibble: 187 x 3
    ## # Groups:   Common_name [186]
    ##    Common_name                 Presence       n
    ##    <chr>                          <dbl>   <int>
    ##  1 -                                  0 7448084
    ##  2 -                                  1   37050
    ##  3 Apalis, Rudd's                     1    2470
    ##  4 Apalis, Yellow-breasted            1   19360
    ##  5 Babbler, Arrow-marked              1   38752
    ##  6 Babbler, Southern Pied             1    3727
    ##  7 Batis, Chinspot                    1   44577
    ##  8 Bee-eater, Blue-cheeked            1    3226
    ##  9 Bee-eater, Little                  1   13534
    ## 10 Bee-eater, Southern Carmine        1    2602
    ## # ... with 177 more rows
